FItBit-Analysis
…
##Removing Duplicates

daily_activity %>% distinct(Id)

## # A tibble: 33 x 1
##            Id
##         <dbl>
##  1 1503960366
##  2 1624580081
##  3 1644430081
##  4 1844505072
##  5 1927972279
##  6 2022484408
##  7 2026352035
##  8 2320127002
##  9 2347167796
## 10 2873212765
## # ... with 23 more rows

daily_sleep %>% distinct(Id)

## # A tibble: 24 x 1
##            Id
##         <dbl>
##  1 1503960366
##  2 1644430081
##  3 1844505072
##  4 1927972279
##  5 2026352035
##  6 2320127002
##  7 2347167796
##  8 3977333714
##  9 4020332650
## 10 4319703577
## # ... with 14 more rows

hourlyintensities %>% distinct(Id)

## # A tibble: 33 x 1
##            Id
##         <dbl>
##  1 1503960366
##  2 1624580081
##  3 1644430081
##  4 1844505072
##  5 1927972279
##  6 2022484408
##  7 2026352035
##  8 2320127002
##  9 2347167796
## 10 2873212765
## # ... with 23 more rows

Metsperminute %>% distinct(Id)

## # A tibble: 33 x 1
##            Id
##         <dbl>
##  1 1503960366
##  2 1624580081
##  3 1644430081
##  4 1844505072
##  5 1927972279
##  6 2022484408
##  7 2026352035
##  8 2320127002
##  9 2347167796
## 10 2873212765
## # ... with 23 more rows
…
#Extracting the required info from string

#dataset
hourlyintensities

## # A tibble: 22,099 x 4
##            Id ActivityHour          TotalIntensity AverageIntensity
##         <dbl> <chr>                          <dbl>            <dbl>
##  1 1503960366 4/12/2016 12:00:00 AM             20            0.333
##  2 1503960366 4/12/2016 1:00:00 AM               8            0.133
##  3 1503960366 4/12/2016 2:00:00 AM               7            0.117
##  4 1503960366 4/12/2016 3:00:00 AM               0            0    
##  5 1503960366 4/12/2016 4:00:00 AM               0            0    
##  6 1503960366 4/12/2016 5:00:00 AM               0            0    
##  7 1503960366 4/12/2016 6:00:00 AM               0            0    
##  8 1503960366 4/12/2016 7:00:00 AM               0            0    
##  9 1503960366 4/12/2016 8:00:00 AM              13            0.217
## 10 1503960366 4/12/2016 9:00:00 AM              30            0.5  
## # ... with 22,089 more rows
…
